\relax 
\@writefile{toc}{\contentsline {section}{\numberline {1}BIE overview}{1}}
\@writefile{toc}{\contentsline {section}{\numberline {2}BIE Top Level Components / Structure}{1}}
\@writefile{toc}{\contentsline {section}{\numberline {3}Computation Engine}{2}}
\@writefile{toc}{\contentsline {section}{\numberline {4}Command Line Interpreter}{2}}
\@writefile{lof}{\contentsline {figure}{\numberline {1}{\ignorespaces Statistical computation}}{3}}
\@writefile{lof}{\contentsline {subfigure}{\string\numberline{1(a)}{\ignorespaces Hierarchical tessellation}}{3}}
\@writefile{lof}{\contentsline {subfigure}{\string\numberline{1(b)}{\ignorespaces MCMC flowchart}}{3}}
\newlabel{fig:stats}{{1}{3}}
\@writefile{toc}{\contentsline {section}{\numberline {5}Graphical User Interface (GUI)}{4}}
\@writefile{toc}{\contentsline {section}{\numberline {6}Visualization Tool}{4}}
\@writefile{toc}{\contentsline {section}{\numberline {7}Data Handling}{4}}
\@writefile{lof}{\contentsline {figure}{\numberline {2}{\ignorespaces A sample CLI session fragment}}{5}}
\newlabel{fig:CLI-session}{{2}{5}}
\@writefile{lof}{\contentsline {figure}{\numberline {3}{\ignorespaces A sample GUI screen}}{6}}
\newlabel{fig:GUI-screenshot}{{3}{6}}
\@writefile{lof}{\contentsline {figure}{\numberline {4}{\ignorespaces Visualizer control panel. Monitors simulation output in real time and allows user to plot the run of any parameter and view marginals of posterior distribution for any two parameters. See Fig. {5\hbox {}} for examples. }}{7}}
\newlabel{fig:visualizer-control}{{4}{7}}
\@writefile{toc}{\contentsline {section}{\numberline {8}Software Technology}{8}}
\@writefile{toc}{\contentsline {section}{\numberline {9}Results to date}{8}}
\@writefile{lof}{\contentsline {figure}{\numberline {5}{\ignorespaces Visualizer example: plot of parameter galactic scale length and scale heights for a single galactic disk component. Shown are scale length function of Markov chain state number (a) and marginalized posterior probability (b) with confidence level contours.}}{9}}
\@writefile{lof}{\contentsline {subfigure}{\string\numberline{5(a)}{\ignorespaces Galactic scale length (kiloparsecs)}}{9}}
\@writefile{lof}{\contentsline {subfigure}{\string\numberline{5(b)}{\ignorespaces Posterior probability for scale length and height}}{9}}
\newlabel{fig:visualizer-example}{{5}{9}}
