%!PS-Adobe-3.0
%%Pages: (atend)
%%BoundingBox: 41 31 488 335
%%HiResBoundingBox: 41.000000 31.581592 488.000000 334.742310
%.....................................
%%Creator: Aladdin Ghostscript 550 (pswrite)
%%CreationDate: 1999/05/13 17:30:30
%%DocumentData: Clean7Bit
%%LanguageLevel: 2
%%EndComments
%%BeginProlog
% This copyright applies to everything between here and the %%EndProlog:
% Copyright (C) 1998 Aladdin Enterprises, Menlo Park, CA.  All rights reserved.
%%BeginResource: procset GS_pswrite_ProcSet
/GS_pswrite_ProcSet 40 dict dup begin
/!{bind def}bind def/#{load def}!
/rG{3{3 -1 roll 255 div}repeat setrgbcolor}!/G{255 div setgray}!/K{0 G}!
/r6{dup 3 -1 roll rG}!/r5{dup 3 1 roll rG}!/r3{dup rG}!
/w/setlinewidth #/J/setlinecap #
/j/setlinejoin #/M/setmiterlimit #/d/setdash #/i/setflat #
/m/moveto #/l/lineto #/c/rcurveto #/h{p closepath}!/H{P closepath}!
/lx{0 rlineto}!/ly{0 exch rlineto}!/v{0 0 6 2 roll c}!/y{2 copy c}!
/re{4 -2 roll m exch dup lx exch ly neg lx h}!
/^{3 index neg 3 index neg}!
/P{count 0 gt{count -2 roll moveto p}if}!
/p{count 2 idiv{count -2 roll rlineto}repeat}!
/f{P fill}!/f*{P eofill}!/S{P stroke}!/q/gsave #/Q/grestore #/rf{re fill}!
/Y{initclip P clip newpath}!/Y*{initclip P eoclip newpath}!/rY{re Y}!
/|{exch string readstring pop exch 4 1 roll 3 packedarray cvx exch 1 index def exec}!
/+{dup type/nametype eq{2 index 7 add -3 bitshift 2 index mul}if}!
/@/currentfile #/${+ @ |}!
/Ix{[1 0 0 1 11 -2 roll exch neg exch neg]exch}!
/,{true exch Ix imagemask}!/If{false exch Ix imagemask}!/I{exch Ix image}!
/Ic{exch Ix false 3 colorimage}!
/F{<</Columns 4 2 roll/Rows exch/K -1/BlackIs1 true >>/CCITTFaxDecode filter}!
/X{/ASCII85Decode filter}!/@X{@ X}!/+F{2 index 2 index F}!/@F{@ +F}!/@C{@X +F}!
/$X{+ @X |}!/-F{4 index 4 index F}!/$F{+ @ -F |}!/$C{+ @X -F |}!
end def
%%EndResource
%%EndProlog
%%Page: 1 1
%%BeginPageSetup
/pagesave save def GS_pswrite_ProcSet begin 0.1 0.1 scale
%%EndPageSetup
166 G
0 0 6120 0 0 7920 ^ Y
3290 2590 m
-260 -150 -260 -150 v
-260 160 -260 160 v
-250 -160 -250 -160 v
-270 150 -270 150 v
-260 -140 -260 -140 v
-260 140 -260 140 v
-10 -290 -10 -290 v
-250 -160 -250 -160 v
-260 -140 -260 -140 v
0 -310 0 -310 v
-250 -150 -250 -150 v
-260 -140 -260 -140 v
-250 150 -250 150 v
-20 -310 -20 -310 v
270 -150 270 -150 v
240 -140 240 -140 v
280 -160 280 -160 v
-20 300 -20 300 v
270 160 270 160 v
250 -160 250 -160 v
290 150 290 150 v
-20 310 -20 310 v
270 150 270 150 v
260 150 260 150 v
250 -150 250 -150 v
-10 290 -10 290 v
270 150 270 150 v
280 160 280 160 v
-20 290 -20 290 v
f*
0.1 w
4 M
191 G
3290 2590 m
-260 -150 -260 -150 v
-260 160 -260 160 v
-250 -160 -250 -160 v
-270 150 -270 150 v
-260 -140 -260 -140 v
-260 140 -260 140 v
-10 -290 -10 -290 v
-250 -160 -250 -160 v
-260 -140 -260 -140 v
0 -310 0 -310 v
-250 -150 -250 -150 v
-260 -140 -260 -140 v
-250 150 -250 150 v
-20 -310 -20 -310 v
270 -150 270 -150 v
240 -140 240 -140 v
280 -160 280 -160 v
-20 300 -20 300 v
270 160 270 160 v
250 -160 250 -160 v
290 150 290 150 v
-20 310 -20 310 v
270 150 270 150 v
260 150 260 150 v
250 -150 250 -150 v
-10 290 -10 290 v
270 150 270 150 v
280 160 280 160 v
-20 290 -20 290 v
h
S
[ 720 2160 ] 0 d
2 J
K
1735.01 1988.68 0 -300 S
1735.11 1988.68 259.81 -150 S
1994.92 1838.68 -259.81 -150 S
1735.13 1988.77 259.81 150 S
1994.94 2138.77 0 -300 S
1735.08 1688.69 259.81 -150 S
1735.13 1688.77 259.81 150 S
1994.94 1838.77 0 -300 S
1475.08 1839.94 259.81 -150 S
1475.13 1840.02 259.81 150 S
1996.4 1837.45 259.81 -150 S
1996.45 1837.54 259.81 150 S
2256.26 1987.54 0 -300 S
1996.43 1837.52 259.81 150 S
1996.38 2137.6 259.81 -150 S
2256.24 1687.52 259.81 150 S
2256.19 1687.6 0 300 S
2256.19 1987.6 259.81 -150 S
1995.25 1537.98 259.81 150 S
1476.55 2139.37 259.81 -150 S
1476.6 2139.45 259.81 150 S
1736.41 2289.45 0 -300 S
1476.58 2139.44 259.81 150 S
1476.53 2139.52 0 300 S
1476.53 2439.52 259.81 -150 S
1736.39 1989.44 259.81 150 S
1736.34 1989.52 0 300 S
1736.34 2289.52 259.81 -150 S
1475.36 1839.98 0 300 S
1475.15 1539.95 259.81 -150 S
1475.2 1540.04 259.81 150 S
1735.01 1690.04 0 -300 S
1475.18 1540.02 259.81 150 S
1475.13 1540.1 0 300 S
1734.99 1390.02 259.81 150 S
1474 1240.48 259.81 150 S
1473.95 1240.56 0 300 S
1996.24 2439.18 259.81 -150 S
1996.29 2439.27 259.81 150 S
2256.1 2589.27 0 -300 S
1996.27 2439.25 259.81 150 S
1996.23 2439.33 0 300 S
1996.23 2739.33 259.81 -150 S
2256.08 2289.25 259.81 150 S
2256.03 2289.33 0 300 S
2256.03 2589.33 259.81 -150 S
1995.1 2139.71 259.81 150 S
1995.05 2139.79 0 300 S
2257.9 2589.94 259.81 150 S
2257.86 2590.02 0 300 S
2257.86 2890.02 259.81 -150 S
2257.86 2590 0 300 S
1997.96 2740 259.81 150 S
2517.67 2740 0 300 S
2257.77 2890 259.81 150 S
2516.68 2439.21 0 300 S
2516.59 2439.21 -259.81 150 S
2256.78 2589.21 259.81 150 S
1736.51 2290.7 259.81 150 S
1736.47 2290.78 0 300 S
1736.46 2590.78 259.81 -150 S
1736.47 2290.76 0 300 S
1476.57 2440.76 259.81 150 S
1996.28 2440.76 0 300 S
1996.18 2440.76 -259.81 150 S
1736.37 2590.76 259.81 150 S
1995.29 2139.96 0 300 S
1995.2 2139.96 -259.81 150 S
2254.92 1989.77 259.81 150 S
2254.87 1989.86 0 300 S
2254.87 2289.86 259.81 -150 S
2254.88 1989.83 0 300 S
1994.98 2139.83 259.81 150 S
2514.69 2139.83 0 300 S
2514.59 2139.83 -259.81 150 S
2513.7 1839.04 0 300 S
2253.8 1989.04 259.81 150 S
1991.24 1239.18 259.81 -150 S
1991.29 1239.27 259.81 150 S
2251.1 1389.27 0 -300 S
1991.27 1239.25 259.81 150 S
1991.23 1239.33 0 300 S
1991.23 1539.33 259.81 -150 S
2251.08 1089.25 259.81 150 S
2251.03 1089.33 0 300 S
2251.03 1389.33 259.81 -150 S
1990.1 939.71 259.81 150 S
1990.05 939.79 0 300 S
2252.9 1389.94 259.81 150 S
2252.86 1390.02 0 300 S
2252.86 1690.02 259.81 -150 S
2252.86 1390 0 300 S
2512.67 1540 0 300 S
2511.68 1239.21 0 300 S
2511.59 1239.21 -259.81 150 S
1731.51 1090.7 259.81 150 S
1731.47 1090.78 0 300 S
1731.46 1390.78 259.81 -150 S
1731.47 1090.76 0 300 S
1731.37 1090.76 -259.81 150 S
1991.28 1240.76 0 300 S
1991.18 1240.76 -259.81 150 S
1990.29 939.96 0 300 S
1990.2 939.96 -259.81 150 S
2249.92 789.77 259.81 150 S
2249.87 789.86 0 300 S
2249.87 1089.86 259.81 -150 S
2249.88 789.83 0 300 S
2249.78 789.83 -259.81 150 S
2509.69 939.83 0 300 S
2509.59 939.83 -259.81 150 S
2508.7 639.04 0 300 S
2508.6 639.04 -259.81 150 S
2248.8 789.04 259.81 150 S
956.24 1839.18 259.81 -150 S
956.29 1839.27 259.81 150 S
1216.1 1989.27 0 -300 S
956.27 1839.25 259.81 150 S
956.23 1839.33 0 300 S
956.23 2139.33 259.81 -150 S
1216.08 1689.25 259.81 150 S
1216.03 1689.33 0 300 S
1216.03 1989.33 259.81 -150 S
955.1 1539.71 259.81 150 S
955.05 1539.79 0 300 S
955.05 1839.79 259.81 -150 S
1217.9 1989.94 259.81 150 S
1217.86 1990.02 0 300 S
1217.86 2290.02 259.81 -150 S
1217.86 1990 0 300 S
957.96 2140 259.81 150 S
1217.77 2290 259.81 150 S
1476.68 1839.21 0 300 S
1476.59 1839.21 -259.81 150 S
696.51 1690.7 259.81 150 S
696.47 1690.78 0 300 S
696.46 1990.78 259.81 -150 S
696.47 1690.76 0 300 S
696.37 1690.76 -259.81 150 S
436.57 1840.76 259.81 150 S
956.28 1840.76 0 300 S
956.18 1840.76 -259.81 150 S
696.37 1990.76 259.81 150 S
955.29 1539.96 0 300 S
955.2 1539.96 -259.81 150 S
1214.92 1389.77 259.81 150 S
1214.87 1389.86 0 300 S
1214.87 1689.86 259.81 -150 S
1214.88 1389.83 0 300 S
1214.78 1389.83 -259.81 150 S
954.98 1539.83 259.81 150 S
1474.59 1539.83 -259.81 150 S
1214.78 1689.83 259.81 150 S
1473.7 1239.04 0 300 S
1473.6 1239.04 -259.81 150 S
1213.8 1389.04 259.81 150 S
2776.09 2595.59 0 300 S
2775.99 2595.59 -259.81 150 S
2516.19 2745.59 259.81 150 S
2776.02 2595.58 -259.81 150 S
2775.97 2595.5 -259.81 -150 S
2516.16 2445.5 0 300 S
2776.02 2895.58 -259.81 150 S
2775.97 2895.5 -259.81 -150 S
3036.02 2744.33 -259.81 150 S
3035.97 2744.25 -259.81 -150 S
2776.16 2594.25 0 300 S
2776.09 1990.59 0 300 S
2775.99 1990.59 -259.81 150 S
2516.19 2140.59 259.81 150 S
2776.02 1990.58 -259.81 150 S
2775.97 1990.5 -259.81 -150 S
2776.02 2290.58 -259.81 150 S
2775.97 2290.5 -259.81 -150 S
3036.02 2139.33 -259.81 150 S
3035.97 2139.25 -259.81 -150 S
2776.16 1989.25 0 300 S
2776.09 1390.59 0 300 S
2775.99 1390.59 -259.81 150 S
2516.19 1540.59 259.81 150 S
2776.02 1390.58 -259.81 150 S
2775.97 1390.5 -259.81 -150 S
2776.02 1690.58 -259.81 150 S
2775.97 1690.5 -259.81 -150 S
3036.02 1539.33 -259.81 150 S
3035.97 1539.25 -259.81 -150 S
2776.16 1389.25 0 300 S
2771.09 790.59 0 300 S
2770.99 790.59 -259.81 150 S
2511.19 940.59 259.81 150 S
2771.02 790.58 -259.81 150 S
2770.97 790.5 -259.81 -150 S
2771.02 1090.58 -259.81 150 S
2770.97 1090.5 -259.81 -150 S
3031.02 939.33 -259.81 150 S
3030.97 939.25 -259.81 -150 S
2771.16 789.25 0 300 S
2251.09 490.59 0 300 S
2250.99 490.59 -259.81 150 S
1991.19 640.59 259.81 150 S
2251.02 490.58 -259.81 150 S
2250.97 490.5 -259.81 -150 S
1991.16 340.5 0 300 S
2250.97 790.5 -259.81 -150 S
1991.16 640.5 0 300 S
2510.97 639.25 -259.81 -150 S
2251.16 489.25 0 300 S
1731.09 790.59 0 300 S
1730.99 790.59 -259.81 150 S
1471.19 940.59 259.81 150 S
1731.02 790.58 -259.81 150 S
1730.97 790.5 -259.81 -150 S
1471.16 640.5 0 300 S
1731.02 1090.58 -259.81 150 S
1730.97 1090.5 -259.81 -150 S
1471.16 940.5 0 300 S
1991.02 939.33 -259.81 150 S
1990.97 939.25 -259.81 -150 S
1731.16 789.25 0 300 S
1216.09 1090.59 0 300 S
1215.99 1090.59 -259.81 150 S
956.19 1240.59 259.81 150 S
1216.02 1090.58 -259.81 150 S
1215.97 1090.5 -259.81 -150 S
956.16 940.5 0 300 S
1215.97 1390.5 -259.81 -150 S
956.16 1240.5 0 300 S
1475.97 1239.25 -259.81 -150 S
1216.16 1089.25 0 300 S
701.09 1385.59 0 300 S
700.99 1385.59 -259.81 150 S
441.19 1535.59 259.81 150 S
701.02 1385.58 -259.81 150 S
700.97 1385.5 -259.81 -150 S
441.16 1235.5 0 300 S
700.97 1685.5 -259.81 -150 S
441.16 1535.5 0 300 S
960.97 1534.25 -259.81 -150 S
701.16 1384.25 0 300 S
696.09 1990.59 0 300 S
695.99 1990.59 -259.81 150 S
436.19 2140.59 259.81 150 S
696.02 1990.58 -259.81 150 S
695.97 1990.5 -259.81 -150 S
436.16 1840.5 0 300 S
696.02 2290.58 -259.81 150 S
695.97 2290.5 -259.81 -150 S
436.16 2140.5 0 300 S
956.02 2139.33 -259.81 150 S
696.16 1989.25 0 300 S
1221.09 2290.59 0 300 S
1220.99 2290.59 -259.81 150 S
961.19 2440.59 259.81 150 S
1221.02 2290.58 -259.81 150 S
961.16 2140.5 0 300 S
1221.02 2590.58 -259.81 150 S
1220.97 2590.5 -259.81 -150 S
961.16 2440.5 0 300 S
1481.02 2439.33 -259.81 150 S
1221.16 2289.25 0 300 S
1741.09 2590.59 0 300 S
1740.99 2590.59 -259.81 150 S
1481.19 2740.59 259.81 150 S
1741.02 2590.58 -259.81 150 S
1481.16 2440.5 0 300 S
1741.02 2890.58 -259.81 150 S
1740.97 2890.5 -259.81 -150 S
1481.16 2740.5 0 300 S
2001.02 2739.33 -259.81 150 S
1741.16 2589.25 0 300 S
2261.09 2890.59 0 300 S
2260.99 2890.59 -259.81 150 S
2001.19 3040.59 259.81 150 S
2261.02 2890.58 -259.81 150 S
2001.16 2740.5 0 300 S
2261.02 3190.58 -259.81 150 S
2260.97 3190.5 -259.81 -150 S
2001.16 3040.5 0 300 S
2521.02 3039.33 -259.81 150 S
2261.16 2889.25 0 300 S
1741.23 2890.56 259.81 150 S
1741.18 2890.65 0 300 S
1741.18 3190.65 259.81 -150 S
1741.19 2890.62 0 300 S
1741.09 2890.62 -259.81 150 S
1481.28 3040.62 259.81 150 S
2000.99 3040.62 0 300 S
2000.9 3040.62 -259.81 150 S
1741.09 3190.62 259.81 150 S
2000.01 2739.83 0 300 S
1221.23 2590.56 259.81 150 S
1221.18 2590.65 0 300 S
1221.18 2890.65 259.81 -150 S
1221.19 2590.62 0 300 S
1221.09 2590.62 -259.81 150 S
961.28 2740.62 259.81 150 S
1480.99 2740.62 0 300 S
1480.9 2740.62 -259.81 150 S
1221.09 2890.62 259.81 150 S
1480.01 2439.83 0 300 S
701.23 2288.06 259.81 150 S
701.18 2288.15 0 300 S
701.18 2588.15 259.81 -150 S
701.19 2288.12 0 300 S
441.28 2438.12 259.81 150 S
960.99 2438.12 0 300 S
960.9 2438.12 -259.81 150 S
701.09 2588.12 259.81 150 S
960.01 2137.33 0 300 S
2776.23 2293.06 259.81 150 S
2776.18 2293.15 0 300 S
2776.18 2593.15 259.81 -150 S
2776.19 2293.12 0 300 S
3035.99 2443.12 0 300 S
3035.9 2443.12 -259.81 150 S
2776.09 2593.12 259.81 150 S
3035.01 2142.33 0 300 S
2776.18 1688.15 0 300 S
2776.18 1988.15 259.81 -150 S
2776.19 1688.12 0 300 S
3035.99 1838.12 0 300 S
3035.9 1838.12 -259.81 150 S
2776.09 1988.12 259.81 150 S
3035.01 1537.33 0 300 S
2775.1 1687.33 259.81 150 S
2776.23 1088.06 259.81 150 S
2776.18 1088.15 0 300 S
2776.18 1388.15 259.81 -150 S
2776.19 1088.12 0 300 S
3035.99 1238.12 0 300 S
2776.09 1388.12 259.81 150 S
3035.01 937.33 0 300 S
1731.23 488.06 259.81 150 S
1731.18 488.15 0 300 S
1731.18 788.15 259.81 -150 S
1731.19 488.12 0 300 S
1731.09 488.12 -259.81 150 S
1990.99 638.12 0 300 S
1990.9 638.12 -259.81 150 S
1731.09 788.12 259.81 150 S
1990.01 337.33 0 300 S
1989.91 337.33 -259.81 150 S
1211.23 788.06 259.81 150 S
1211.18 788.15 0 300 S
1211.18 1088.15 259.81 -150 S
1211.19 788.12 0 300 S
1211.09 788.12 -259.81 150 S
1470.99 938.12 0 300 S
1470.9 938.12 -259.81 150 S
1470.01 637.33 0 300 S
1469.91 637.33 -259.81 150 S
696.23 1085.56 259.81 150 S
696.18 1085.65 0 300 S
696.18 1385.65 259.81 -150 S
696.19 1085.62 0 300 S
696.09 1085.62 -259.81 150 S
955.99 1235.62 0 300 S
955.9 1235.62 -259.81 150 S
955.01 934.83 0 300 S
954.91 934.83 -259.81 150 S
3036.48 2443.06 259.81 -150 S
3036.53 2443.14 259.81 150 S
3296.33 2593.14 0 -300 S
3036.51 2443.12 259.81 150 S
3036.46 2443.21 0 300 S
3036.46 2743.21 259.81 -150 S
3296.32 2293.12 259.81 150 S
3296.27 2293.21 0 300 S
3296.27 2593.21 259.81 -150 S
3035.33 2143.58 259.81 150 S
3035.28 2143.66 0 300 S
3035.28 2443.66 259.81 -150 S
3036.48 1838.06 259.81 -150 S
3036.53 1838.14 259.81 150 S
3296.33 1988.14 0 -300 S
3036.51 1838.12 259.81 150 S
3036.46 1838.21 0 300 S
3036.46 2138.21 259.81 -150 S
3296.32 1688.12 259.81 150 S
3296.27 1688.21 0 300 S
3296.27 1988.21 259.81 -150 S
3035.33 1538.58 259.81 150 S
3035.28 1538.66 0 300 S
3035.28 1838.66 259.81 -150 S
3036.48 1233.06 259.81 -150 S
3036.53 1233.14 259.81 150 S
3296.33 1383.14 0 -300 S
3036.51 1233.12 259.81 150 S
3036.46 1233.21 0 300 S
3036.46 1533.21 259.81 -150 S
3296.32 1083.12 259.81 150 S
3296.27 1083.21 0 300 S
3296.27 1383.21 259.81 -150 S
3035.33 933.58 259.81 150 S
3296.47 1993.51 259.81 150 S
3296.42 1993.6 0 300 S
3296.42 2293.6 259.81 -150 S
3296.42 1993.57 0 300 S
3036.52 2143.57 259.81 150 S
3551.23 2143.57 0 300 S
3556.13 2143.57 -259.81 150 S
3296.33 2293.57 259.81 150 S
3555.24 1842.78 0 300 S
3295.34 1992.78 259.81 150 S
3296.47 1383.51 259.81 150 S
3296.42 1383.6 0 300 S
3296.42 1683.6 259.81 -150 S
3296.42 1383.57 0 300 S
3296.33 1383.57 -259.81 150 S
3556.23 1533.57 0 300 S
3556.13 1533.57 -259.81 150 S
3555.24 1232.78 0 300 S
3555.15 1232.78 -259.81 150 S
3295.34 1382.78 259.81 150 S
695.99 1085.59 -259.81 150 S
696.02 1085.58 -259.81 150 S
[ ] 0 d
1484.33 1537.16 259.81 150 S
1745 1987.5 -261.25 148.75 S
1483.36 1837.79 0.39 299.71 S
1746.85 1689.08 259.81 150 S
2005.61 1837.89 -259.81 150 S
1484.31 1538.65 0 300 S
2521.94 1537.16 -259.81 150 S
2261.27 1987.5 261.25 148.75 S
2522.91 1837.79 -0.39 299.71 S
2259.42 1689.08 -259.81 150 S
2000.66 1837.89 259.81 150 S
2521.96 1538.65 0 300 S
2005.69 1235.91 -259.81 150 S
1745.02 1686.25 261.25 148.75 S
2006.66 1536.54 -0.39 299.71 S
1743.17 1387.83 -259.81 150 S
1484.41 1536.64 259.81 150 S
2005.71 1237.4 0 300 S
1484.71 2136.75 259.81 -150 S
2005.06 2136.17 -1.8 300.62 S
1744.58 2287.91 259.75 149.52 S
1747.55 1985.36 259.81 -150 S
2005.8 1835.68 0 300 S
1486 2137.51 259.81 150 S
2001.94 2436.63 0 -300 S
2261.61 1985.71 259.45 151.87 S
2262.77 2287.16 259.36 -150.2 S
2002.24 2133.32 0 -300 S
2001.74 1834.82 259.81 150 S
2003.23 2435.9 259.81 -150 S
2005.69 1839.13 0 -300 S
2265.36 1388.21 259.45 151.87 S
2005.99 1535.82 0 -300 S
2005.49 1237.32 259.81 150 S
2519.33 1532.16 259.81 150 S
2780 1982.5 -261.25 148.75 S
2518.36 1832.79 0.39 299.71 S
2781.85 1684.08 259.81 150 S
3040.61 1832.89 -259.81 150 S
2519.31 1533.65 0 300 S
3556.94 1532.16 -259.81 150 S
3296.27 1982.5 261.25 148.75 S
3557.91 1832.79 -0.39 299.71 S
3294.42 1684.08 -259.81 150 S
3035.66 1832.89 259.81 150 S
3556.96 1533.65 0 300 S
3040.69 1230.91 -259.81 150 S
2780.02 1681.25 261.25 148.75 S
3041.66 1531.54 -0.39 299.71 S
2778.17 1382.83 -259.81 150 S
2519.41 1531.64 259.81 150 S
3040.71 1232.4 0 300 S
2519.71 2131.75 259.81 -150 S
3040.06 2131.17 -1.8 300.62 S
2779.58 2282.91 259.75 149.52 S
2782.55 1980.36 259.81 -150 S
3040.8 1830.68 0 300 S
2521 2132.51 259.81 150 S
3036.94 2431.63 0 -300 S
3296.61 1980.71 259.45 151.87 S
3297.77 2282.16 259.36 -150.2 S
3037.24 2128.32 0 -300 S
3036.74 1829.82 259.81 150 S
3038.23 2430.9 259.81 -150 S
3040.69 1834.13 0 -300 S
3300.36 1383.21 259.45 151.87 S
3040.99 1530.82 0 -300 S
3040.49 1232.32 259.81 150 S
1999.33 642.16 259.81 150 S
2260 1092.5 -261.25 148.75 S
1998.36 942.79 0.39 299.71 S
2261.85 794.08 259.81 150 S
2520.61 942.89 -259.81 150 S
1999.31 643.65 0 300 S
3036.94 642.16 -259.81 150 S
2776.27 1092.5 261.25 148.75 S
3037.91 942.79 -0.39 299.71 S
2774.42 794.08 -259.81 150 S
2515.66 942.89 259.81 150 S
3036.96 643.65 0 300 S
2520.69 340.91 -259.81 150 S
2260.02 791.25 261.25 148.75 S
2521.66 641.54 -0.39 299.71 S
2258.17 492.83 -259.81 150 S
1999.41 641.64 259.81 150 S
2520.71 342.4 0 300 S
1999.71 1241.75 259.81 -150 S
2520.06 1241.17 -1.8 300.62 S
2259.58 1392.91 259.75 149.52 S
2262.55 1090.36 259.81 -150 S
2520.8 940.68 0 300 S
2001 1242.51 259.81 150 S
2516.94 1541.63 0 -300 S
2776.61 1090.71 259.45 151.87 S
2777.77 1392.16 259.36 -150.2 S
2517.24 1238.32 0 -300 S
2516.74 939.82 259.81 150 S
2518.23 1540.9 259.81 -150 S
2520.69 944.13 0 -300 S
2780.36 493.21 259.45 151.87 S
2520.99 640.82 0 -300 S
2520.49 342.32 259.81 150 S
964.33 642.16 259.81 150 S
1225 1092.5 -261.25 148.75 S
963.36 942.79 0.39 299.71 S
1226.85 794.08 259.81 150 S
1485.61 942.89 -259.81 150 S
964.31 643.65 0 300 S
2001.94 642.16 -259.81 150 S
1741.27 1092.5 261.25 148.75 S
2002.91 942.79 -0.39 299.71 S
1739.42 794.08 -259.81 150 S
1480.66 942.89 259.81 150 S
2001.96 643.65 0 300 S
1485.69 340.91 -259.81 150 S
1225.02 791.25 261.25 148.75 S
1486.66 641.54 -0.39 299.71 S
1223.17 492.83 -259.81 150 S
964.41 641.64 259.81 150 S
1485.71 342.4 0 300 S
964.71 1241.75 259.81 -150 S
1485.06 1241.17 -1.8 300.62 S
1224.58 1392.91 259.75 149.52 S
1227.55 1090.36 259.81 -150 S
1485.8 940.68 0 300 S
966 1242.51 259.81 150 S
1481.94 1541.63 0 -300 S
1741.61 1090.71 259.45 151.87 S
1742.77 1392.16 259.36 -150.2 S
1482.24 1238.32 0 -300 S
1481.74 939.82 259.81 150 S
1483.23 1540.9 259.81 -150 S
1485.69 944.13 0 -300 S
1745.36 493.21 259.45 151.87 S
1485.99 640.82 0 -300 S
1485.49 342.32 259.81 150 S
3034.33 627.16 259.81 150 S
3295 1077.5 -261.25 148.75 S
3033.36 927.79 0.39 299.71 S
3296.85 779.08 259.81 150 S
3555.61 927.89 -259.81 150 S
3034.31 628.65 0 300 S
4071.94 627.16 -259.81 150 S
3811.27 1077.5 261.25 148.75 S
4072.91 927.79 -0.39 299.71 S
3809.42 779.08 -259.81 150 S
3550.66 927.89 259.81 150 S
4071.96 628.65 0 300 S
3555.69 325.91 -259.81 150 S
3295.02 776.25 261.25 148.75 S
3556.66 626.54 -0.39 299.71 S
3293.17 477.83 -259.81 150 S
3034.41 626.64 259.81 150 S
3555.71 327.4 0 300 S
3034.71 1226.75 259.81 -150 S
3555.06 1226.17 -1.8 300.62 S
3294.58 1377.91 259.75 149.52 S
3297.55 1075.36 259.81 -150 S
3555.8 925.68 0 300 S
3036 1227.51 259.81 150 S
3551.94 1526.63 0 -300 S
3811.61 1075.71 259.45 151.87 S
3812.77 1377.16 259.36 -150.2 S
3552.24 1223.32 0 -300 S
3551.74 924.82 259.81 150 S
3553.23 1525.9 259.81 -150 S
3555.69 929.13 0 -300 S
3815.36 478.21 259.45 151.87 S
3555.99 625.82 0 -300 S
3555.49 327.32 259.81 150 S
444.33 1542.16 259.81 150 S
705 1992.5 -261.25 148.75 S
443.36 1842.79 0.39 299.71 S
706.85 1694.08 259.81 150 S
965.61 1842.89 -259.81 150 S
444.31 1543.65 0 300 S
1481.94 1542.16 -259.81 150 S
1221.27 1992.5 261.25 148.75 S
1482.91 1842.79 -0.39 299.71 S
1219.42 1694.08 -259.81 150 S
960.66 1842.89 259.81 150 S
1481.96 1543.65 0 300 S
965.69 1240.91 -259.81 150 S
705.02 1691.25 261.25 148.75 S
966.66 1541.54 -0.39 299.71 S
703.17 1392.83 -259.81 150 S
444.41 1541.64 259.81 150 S
965.71 1242.4 0 300 S
444.71 2141.75 259.81 -150 S
965.06 2141.17 -1.8 300.62 S
704.58 2292.91 259.75 149.52 S
707.55 1990.36 259.81 -150 S
965.8 1840.68 0 300 S
446 2142.51 259.81 150 S
961.94 2441.63 0 -300 S
1221.61 1990.71 259.45 151.87 S
1222.77 2292.16 259.36 -150.2 S
962.24 2138.32 0 -300 S
961.74 1839.82 259.81 150 S
963.23 2440.9 259.81 -150 S
965.69 1844.13 0 -300 S
1225.36 1393.21 259.45 151.87 S
965.99 1540.82 0 -300 S
965.49 1242.32 259.81 150 S
964.33 2437.16 259.81 150 S
1225 2887.5 -261.25 148.75 S
963.36 2737.79 0.39 299.71 S
1226.85 2589.08 259.81 150 S
1485.61 2737.89 -259.81 150 S
964.31 2438.65 0 300 S
2001.94 2437.16 -259.81 150 S
1741.27 2887.5 261.25 148.75 S
2002.91 2737.79 -0.39 299.71 S
1739.42 2589.08 -259.81 150 S
1480.66 2737.89 259.81 150 S
2001.96 2438.65 0 300 S
1485.69 2135.91 -259.81 150 S
1225.02 2586.25 261.25 148.75 S
1486.66 2436.54 -0.39 299.71 S
1223.17 2287.83 -259.81 150 S
964.41 2436.64 259.81 150 S
1485.71 2137.4 0 300 S
964.71 3036.75 259.81 -150 S
1485.06 3036.17 -1.8 300.62 S
1224.58 3187.91 259.75 149.52 S
1227.55 2885.36 259.81 -150 S
1485.8 2735.68 0 300 S
966 3037.51 259.81 150 S
1481.94 3336.63 0 -300 S
1741.61 2885.71 259.45 151.87 S
1742.77 3187.16 259.36 -150.2 S
1482.24 3033.32 0 -300 S
1481.74 2734.82 259.81 150 S
1483.23 3335.9 259.81 -150 S
1485.69 2739.13 0 -300 S
1745.36 2288.21 259.45 151.87 S
1485.99 2435.82 0 -300 S
1485.49 2137.32 259.81 150 S
1999.33 2432.16 259.81 150 S
2260 2882.5 -261.25 148.75 S
1998.36 2732.79 0.39 299.71 S
2261.85 2584.08 259.81 150 S
2520.61 2732.89 -259.81 150 S
1999.31 2433.65 0 300 S
3036.94 2432.16 -259.81 150 S
2776.27 2882.5 261.25 148.75 S
3037.91 2732.79 -0.39 299.71 S
2774.42 2584.08 -259.81 150 S
2515.66 2732.89 259.81 150 S
3036.96 2433.65 0 300 S
2520.69 2130.91 -259.81 150 S
2260.02 2581.25 261.25 148.75 S
2521.66 2431.54 -0.39 299.71 S
2258.17 2282.83 -259.81 150 S
1999.41 2431.64 259.81 150 S
2520.71 2132.4 0 300 S
1999.71 3031.75 259.81 -150 S
2520.06 3031.17 -1.8 300.62 S
2259.58 3182.91 259.75 149.52 S
2262.55 2880.36 259.81 -150 S
2520.8 2730.68 0 300 S
2001 3032.51 259.81 150 S
2516.94 3331.63 0 -300 S
2776.61 2880.71 259.45 151.87 S
2777.77 3182.16 259.36 -150.2 S
2517.24 3028.32 0 -300 S
2516.74 2729.82 259.81 150 S
2518.23 3330.9 259.81 -150 S
2520.69 2734.13 0 -300 S
2780.36 2283.21 259.45 151.87 S
2520.99 2430.82 0 -300 S
2520.49 2132.32 259.81 150 S
0 J
1995 3040 m
-1035 -600 -1035 -600 v
0 -1195 0 -1195 v
1035 -610 1035 -610 v
1040 595 1040 595 v
-5 1215 -5 1215 v
-1035 595 -1035 595 v
h
S
2 J
955 2445 2080 -1210 S
3020 2435 -2035 -1185 S
1995 3040 -5 -2395 S
0.2 i
3856 3041 -27 0 0 -131 90.22 0 0 23 -63.22 0 H
3924.98 2910 f*
4017.32 2951 m
0.18 2 0.18 2.83 0.18 4 c
0 9 -1.26 18 -3.42 24.3 c
-6.12 18.36 -21.96 29.32 -42.12 29.32 c
-27.9 0 -45 -20.08 -45 -52.54 c
0 -31.14 16.92 -50.22 44.46 -50.22 c
21.78 0 39.42 12.24 45 31.5 c
-24.84 0 p
-3.06 -7.74 -10.08 -12.5 -19.26 -12.5 c
-7.02 0 -12.6 2.97 -16.2 8.18 c
-2.52 3.85 -3.6 8.43 -3.96 17.96 c
h
3952.52 2968 m
1.62 14.55 7.92 21.62 19.08 21.62 c
11.52 0 18.36 -7.56 19.62 -21.62 c
h
4023.08 2910 f*
4085 2910 33.48 97 -26.64 0 -19.62 -70.9 -21.06 70.9 -26.64 0 34.02 -97 H
4122.08 2910 f*
4214.32 2951 m
0.18 2 0.18 2.83 0.18 4 c
0 9 -1.26 18 -3.42 24.3 c
-6.12 18.36 -21.96 29.32 -42.12 29.32 c
-27.9 0 -45 -20.08 -45 -52.54 c
0 -31.14 16.92 -50.22 44.46 -50.22 c
21.78 0 39.42 12.24 45 31.5 c
-24.84 0 p
-3.06 -7.74 -10.08 -12.5 -19.26 -12.5 c
-7.02 0 -12.6 2.97 -16.2 8.18 c
-2.52 3.85 -3.6 8.43 -3.96 17.96 c
h
4149.52 2968 m
1.62 14.55 7.92 21.62 19.08 21.62 c
11.52 0 18.36 -7.56 19.62 -21.62 c
h
4220.08 2910 f*
4231 2910 24.9998 131 rf
4359 2998.02 0 -88.02 25 0 0 127.62 -16.7 0 P
-3.96 -15.12 -17.1 -22.86 -39.06 -22.86 c
0 -16.74 h
4416.08 2910 f*
3856 2751 -27 0 0 -131 90.22 0 0 23 -63.22 0 H
3924.98 2620 f*
4017.32 2661 m
0.18 2 0.18 2.83 0.18 4 c
0 9 -1.26 18 -3.42 24.3 c
-6.12 18.36 -21.96 29.32 -42.12 29.32 c
-27.9 0 -45 -20.08 -45 -52.54 c
0 -31.14 16.92 -50.22 44.46 -50.22 c
21.78 0 39.42 12.24 45 31.5 c
-24.84 0 p
-3.06 -7.74 -10.08 -12.5 -19.26 -12.5 c
-7.02 0 -12.6 2.97 -16.2 8.18 c
-2.52 3.85 -3.6 8.43 -3.96 17.96 c
h
3952.52 2678 m
1.62 14.55 7.92 21.62 19.08 21.62 c
11.52 0 18.36 -7.56 19.62 -21.62 c
h
4023.08 2620 f*
4085 2620 33.48 97 -26.64 0 -19.62 -70.9 -21.06 70.9 -26.64 0 34.02 -97 H
4122.08 2620 f*
4214.32 2661 m
0.18 2 0.18 2.83 0.18 4 c
0 9 -1.26 18 -3.42 24.3 c
-6.12 18.36 -21.96 29.32 -42.12 29.32 c
-27.9 0 -45 -20.08 -45 -52.54 c
0 -31.14 16.92 -50.22 44.46 -50.22 c
21.78 0 39.42 12.24 45 31.5 c
-24.84 0 p
-3.06 -7.74 -10.08 -12.5 -19.26 -12.5 c
-7.02 0 -12.6 2.97 -16.2 8.18 c
-2.52 3.85 -3.6 8.43 -3.96 17.96 c
h
4149.52 2678 m
1.62 14.55 7.92 21.62 19.08 21.62 c
11.52 0 18.36 -7.56 19.62 -21.62 c
h
4220.08 2620 f*
4231 2620 24.9998 131 rf
4408.46 2643 -54.3 0 P
3.24 6.7 7.38 10.4 25.92 23.62 c
22.14 16.2 28.92 25.74 28.92 43.2 c
0 24.66 -17.04 40.32 -44.04 40.32 c
-26.46 0 -41.96 -15.59 -41.96 -42.48 c
0 -1.08 0 -2.52 0.2 -4.5 c
23.8 0 0 3.6 p
0 14.76 6.59 22.38 18.5 22.38 c
11.16 0 18.5 -7.49 18.5 -19.86 c
0 -14.22 -4.39 -19.26 -33.08 -39.6 c
-21.6 -14.76 -28.26 -25.92 -29.52 -49.68 c
87.06 0 h
4416.08 2620 f*
3856 2461 -27 0 0 -131 90.22 0 0 23 -63.22 0 H
3924.98 2330 f*
4017.32 2371 m
0.18 2 0.18 2.83 0.18 4 c
0 9 -1.26 18 -3.42 24.3 c
-6.12 18.36 -21.96 29.32 -42.12 29.32 c
-27.9 0 -45 -20.08 -45 -52.54 c
0 -31.14 16.92 -50.22 44.46 -50.22 c
21.78 0 39.42 12.24 45 31.5 c
-24.84 0 p
-3.06 -7.74 -10.08 -12.5 -19.26 -12.5 c
-7.02 0 -12.6 2.97 -16.2 8.18 c
-2.52 3.85 -3.6 8.43 -3.96 17.96 c
h
3952.52 2388 m
1.62 14.55 7.92 21.62 19.08 21.62 c
11.52 0 18.36 -7.56 19.62 -21.62 c
h
4023.08 2330 f*
4085 2330 33.48 97 -26.64 0 -19.62 -70.9 -21.06 70.9 -26.64 0 34.02 -97 H
4122.08 2330 f*
4214.32 2371 m
0.18 2 0.18 2.83 0.18 4 c
0 9 -1.26 18 -3.42 24.3 c
-6.12 18.36 -21.96 29.32 -42.12 29.32 c
-27.9 0 -45 -20.08 -45 -52.54 c
0 -31.14 16.92 -50.22 44.46 -50.22 c
21.78 0 39.42 12.24 45 31.5 c
-24.84 0 p
-3.06 -7.74 -10.08 -12.5 -19.26 -12.5 c
-7.02 0 -12.6 2.97 -16.2 8.18 c
-2.52 3.85 -3.6 8.43 -3.96 17.96 c
h
4149.52 2388 m
1.62 14.55 7.92 21.62 19.08 21.62 c
11.52 0 18.36 -7.56 19.62 -21.62 c
h
4220.08 2330 f*
4231 2330 24.9998 131 rf
4355.06 2387.06 m
9.72 0 10.26 0 14.76 -1.26 c
8.46 -2.34 14.18 -9.72 14.18 -19.08 c
0 -11.34 -7.87 -19.86 -19.22 -19.86 c
-11.88 0 -18.36 7.05 -19.08 20.58 c
-24.48 0 p
0.18 -25.56 16.74 -41.58 43.2 -41.58 c
27 0 44.58 16.02 44.58 40.86 c
0 14.94 -6.52 24.66 -21 31.68 c
11.7 7.38 17 15.48 17 27.18 c
0 21.24 -15.94 34.56 -40.76 34.56 c
-18.54 0 -32.76 -8.03 -38.34 -21.78 c
-2.34 -6.12 -3.06 -10.26 -3.06 -20.88 c
23.4 0 p
0.18 6.48 0.72 9.9 1.8 12.96 c
2.34 5.94 8.1 9.7 15.66 9.7 c
10.08 0 16.3 -6.18 16.3 -16.9 c
0 -12.6 -7.54 -19.26 -22.24 -19.26 c
-2.7 0 h
4416.08 2330 f*
1 i
3374.49 2722.21 m
31.01 -19.38 51.87 -46.08 63.17 -80.86 c
-71.33 -23.18 -71.33 -23.18 -142.66 -46.35 c
79.49 127.21 79.49 127.21 v
f*
3765 2960 -353.5 -274.53 S
3436.19 2379.08 m
33.91 -13.7 59.08 -36.37 76.25 -68.66 c
-66.22 -35.21 -66.22 -35.21 -132.44 -70.42 c
56.19 139.08 56.19 139.08 v
f*
3770 2670 -290.91 -320.74 S
3146.07 2096.07 m
25.86 -25.86 40.18 -56.56 43.36 -92.99 c
-74.72 -6.54 -74.72 -6.54 -149.43 -13.07 c
106.07 106.07 106.07 106.07 v
f*
3173.5 2052.72 611.5 287.28 S
4470 2690 385 0 S
4470 2390 385 0 S
[ 720 2160 ] 0 d
4456.28 2963.12 383.72 1.88 S
end showpage pagesave restore
%%PageTrailer
%%Trailer
%%Pages: 1
%%EOF
