%!PS-Adobe-2.0 EPSF-2.0
%%Title: flow1n.eps
%%Creator: fig2dev Version 3.2 Patchlevel 3a
%%CreationDate: Fri Oct 12 14:19:03 2001
%%For: weinberg@osprey (Martin Weinberg,530 LGRC,545-3821,)
%%BoundingBox: 0 0 396 698
%%Magnification: 0.7000
%%EndComments
/$F2psDict 200 dict def
$F2psDict begin
$F2psDict /mtrx matrix put
/col-1 {0 setgray} bind def
/col0 {0.000 0.000 0.000 srgb} bind def
/col1 {0.000 0.000 1.000 srgb} bind def
/col2 {0.000 1.000 0.000 srgb} bind def
/col3 {0.000 1.000 1.000 srgb} bind def
/col4 {1.000 0.000 0.000 srgb} bind def
/col5 {1.000 0.000 1.000 srgb} bind def
/col6 {1.000 1.000 0.000 srgb} bind def
/col7 {1.000 1.000 1.000 srgb} bind def
/col8 {0.000 0.000 0.560 srgb} bind def
/col9 {0.000 0.000 0.690 srgb} bind def
/col10 {0.000 0.000 0.820 srgb} bind def
/col11 {0.530 0.810 1.000 srgb} bind def
/col12 {0.000 0.560 0.000 srgb} bind def
/col13 {0.000 0.690 0.000 srgb} bind def
/col14 {0.000 0.820 0.000 srgb} bind def
/col15 {0.000 0.560 0.560 srgb} bind def
/col16 {0.000 0.690 0.690 srgb} bind def
/col17 {0.000 0.820 0.820 srgb} bind def
/col18 {0.560 0.000 0.000 srgb} bind def
/col19 {0.690 0.000 0.000 srgb} bind def
/col20 {0.820 0.000 0.000 srgb} bind def
/col21 {0.560 0.000 0.560 srgb} bind def
/col22 {0.690 0.000 0.690 srgb} bind def
/col23 {0.820 0.000 0.820 srgb} bind def
/col24 {0.500 0.190 0.000 srgb} bind def
/col25 {0.630 0.250 0.000 srgb} bind def
/col26 {0.750 0.380 0.000 srgb} bind def
/col27 {1.000 0.500 0.500 srgb} bind def
/col28 {1.000 0.630 0.630 srgb} bind def
/col29 {1.000 0.750 0.750 srgb} bind def
/col30 {1.000 0.880 0.880 srgb} bind def
/col31 {1.000 0.840 0.000 srgb} bind def

end
save
newpath 0 698 moveto 0 0 lineto 396 0 lineto 396 698 lineto closepath clip newpath
-5.0 697.0 translate
1 -1 scale

/cp {closepath} bind def
/ef {eofill} bind def
/gr {grestore} bind def
/gs {gsave} bind def
/sa {save} bind def
/rs {restore} bind def
/l {lineto} bind def
/m {moveto} bind def
/rm {rmoveto} bind def
/n {newpath} bind def
/s {stroke} bind def
/sh {show} bind def
/slc {setlinecap} bind def
/slj {setlinejoin} bind def
/slw {setlinewidth} bind def
/srgb {setrgbcolor} bind def
/rot {rotate} bind def
/sc {scale} bind def
/sd {setdash} bind def
/ff {findfont} bind def
/sf {setfont} bind def
/scf {scalefont} bind def
/sw {stringwidth} bind def
/tr {translate} bind def
/tnt {dup dup currentrgbcolor
  4 -2 roll dup 1 exch sub 3 -1 roll mul add
  4 -2 roll dup 1 exch sub 3 -1 roll mul add
  4 -2 roll dup 1 exch sub 3 -1 roll mul add srgb}
  bind def
/shd {dup dup currentrgbcolor 4 -2 roll mul 4 -2 roll mul
  4 -2 roll mul srgb} bind def
 /DrawEllipse {
	/endangle exch def
	/startangle exch def
	/yrad exch def
	/xrad exch def
	/y exch def
	/x exch def
	/savematrix mtrx currentmatrix def
	x y tr xrad yrad sc 0 0 1 startangle endangle arc
	closepath
	savematrix setmatrix
	} def

/$F2psBegin {$F2psDict begin /$F2psEnteredState save def} def
/$F2psEnd {$F2psEnteredState restore end} def

$F2psBegin
%%Page: 1 1
10 setmiterlimit
 0.04200 0.04200 sc
15.000 slw
% Ellipse
n 4725 600 605 605 0 360 DrawEllipse gs col7 1.00 shd ef gr gs col0 s gr

% Ellipse
n 4725 15975 605 605 0 360 DrawEllipse gs col7 1.00 shd ef gr gs col0 s gr

% Ellipse
n 8925 13275 605 605 0 360 DrawEllipse gs col7 1.00 shd ef gr gs col0 s gr

% Polyline
n 2430 1875 m 2325 1875 2325 14670 105 arcto 4 {pop} repeat
  2325 14775 7020 14775 105 arcto 4 {pop} repeat
  7125 14775 7125 1980 105 arcto 4 {pop} repeat
  7125 1875 2430 1875 105 arcto 4 {pop} repeat
 cp gs col7 0.60 shd ef gr gs col0 s gr 
% Polyline
n 3030 2250 m 2925 2250 2925 10470 105 arcto 4 {pop} repeat
  2925 10575 6420 10575 105 arcto 4 {pop} repeat
  6525 10575 6525 2355 105 arcto 4 {pop} repeat
  6525 2250 3030 2250 105 arcto 4 {pop} repeat
 cp gs col7 0.75 shd ef gr gs col0 s gr 
% Polyline
gs  clippath
4665 12390 m 4785 12390 l 4785 12035 l 4725 12335 l 4665 12035 l cp
eoclip
n 4725 11925 m
 4725 12375 l gs col7 0.95 shd ef gr gs col0 s gr gr

% arrowhead
n 4665 12035 m 4725 12335 l 4785 12035 l 4725 12095 l 4665 12035 l 
 cp gs 0.00 setgray ef gr  col0 s
% Polyline
gs  clippath
5910 2865 m 5910 2985 l 6265 2985 l 5965 2925 l 6265 2865 l cp
eoclip
n 5625 9375 m 6300 9375 l 6300 2925 l
 5925 2925 l gs col0 s gr gr

% arrowhead
n 6265 2865 m 5965 2925 l 6265 2985 l 6205 2925 l 6265 2865 l 
 cp gs 0.00 setgray ef gr  col0 s
% Polyline
 [15 68] 68 sd
gs  clippath
3540 4485 m 3540 4365 l 3185 4365 l 3485 4425 l 3185 4485 l cp
eoclip
n 1500 4425 m
 3525 4425 l gs col0 s gr gr
 [] 0 sd
% arrowhead
n 3185 4485 m 3485 4425 l 3185 4365 l 3245 4425 l 3185 4485 l 
 cp gs col7 1.00 shd ef gr  col0 s
% Polyline
 [15 68] 68 sd
gs  clippath
3540 5910 m 3540 5790 l 3185 5790 l 3485 5850 l 3185 5910 l cp
eoclip
n 1500 5850 m
 3525 5850 l gs col0 s gr gr
 [] 0 sd
% arrowhead
n 3185 5910 m 3485 5850 l 3185 5790 l 3245 5850 l 3185 5910 l 
 cp gs col7 1.00 shd ef gr  col0 s
% Polyline
gs  clippath
4665 2565 m 4785 2565 l 4785 2210 l 4725 2510 l 4665 2210 l cp
eoclip
n 4725 1275 m
 4725 2550 l gs col7 0.95 shd ef gr gs col0 s gr gr

% arrowhead
n 4665 2210 m 4725 2510 l 4785 2210 l 4725 2270 l 4665 2210 l 
 cp gs 0.00 setgray ef gr  col0 s
% Polyline
gs  clippath
4665 3990 m 4785 3990 l 4785 3635 l 4725 3935 l 4665 3635 l cp
eoclip
n 4725 3375 m
 4725 3975 l gs col7 0.95 shd ef gr gs col0 s gr gr

% arrowhead
n 4665 3635 m 4725 3935 l 4785 3635 l 4725 3695 l 4665 3635 l 
 cp gs 0.00 setgray ef gr  col0 s
% Polyline
gs  clippath
4665 5490 m 4785 5490 l 4785 5135 l 4725 5435 l 4665 5135 l cp
eoclip
n 4725 4800 m
 4725 5475 l gs col7 0.95 shd ef gr gs col0 s gr gr

% arrowhead
n 4665 5135 m 4725 5435 l 4785 5135 l 4725 5195 l 4665 5135 l 
 cp gs 0.00 setgray ef gr  col0 s
% Polyline
gs  clippath
4665 6990 m 4785 6990 l 4785 6635 l 4725 6935 l 4665 6635 l cp
eoclip
n 4725 6300 m
 4725 6975 l gs col7 0.95 shd ef gr gs col0 s gr gr

% arrowhead
n 4665 6635 m 4725 6935 l 4785 6635 l 4725 6695 l 4665 6635 l 
 cp gs 0.00 setgray ef gr  col0 s
% Polyline
gs  clippath
4665 8490 m 4785 8490 l 4785 8135 l 4725 8435 l 4665 8135 l cp
eoclip
n 4725 7800 m
 4725 8475 l gs col7 0.95 shd ef gr gs col0 s gr gr

% arrowhead
n 4665 8135 m 4725 8435 l 4785 8135 l 4725 8195 l 4665 8135 l 
 cp gs 0.00 setgray ef gr  col0 s
% Polyline
gs  clippath
4665 11115 m 4785 11115 l 4785 10760 l 4725 11060 l 4665 10760 l cp
eoclip
n 4725 10275 m
 4725 11100 l gs col7 0.95 shd ef gr gs col0 s gr gr

% arrowhead
n 4665 10760 m 4725 11060 l 4785 10760 l 4725 10820 l 4665 10760 l 
 cp gs 0.00 setgray ef gr  col0 s
% Polyline
gs  clippath
4665 15390 m 4785 15390 l 4785 15035 l 4725 15335 l 4665 15035 l cp
eoclip
n 4725 14175 m
 4725 15375 l gs col7 0.95 shd ef gr gs col0 s gr gr

% arrowhead
n 4665 15035 m 4725 15335 l 4785 15035 l 4725 15095 l 4665 15035 l 
 cp gs 0.00 setgray ef gr  col0 s
% Polyline
gs  clippath
8340 13335 m 8340 13215 l 7985 13215 l 8285 13275 l 7985 13335 l cp
eoclip
n 5625 13275 m
 8325 13275 l gs col0 s gr gr

% arrowhead
n 7985 13335 m 8285 13275 l 7985 13215 l 8045 13275 l 7985 13335 l 
 cp gs 0.00 setgray ef gr  col0 s
% Polyline
n 150 4050 m 1650 4050 l 1650 4725 l 150 4725 l
 cp gs col7 1.00 shd ef gr gs col0 s gr 
% Polyline
n 150 5475 m 1650 5475 l 1650 6225 l 150 6225 l
 cp gs col7 1.00 shd ef gr gs col0 s gr 
% Polyline
n 3525 2550 m 5925 2550 l 5925 3375 l 3525 3375 l
 cp gs col7 1.00 shd ef gr gs col0 s gr 
% Polyline
n 3525 3975 m 5925 3975 l 5925 4800 l 3525 4800 l
 cp gs col7 1.00 shd ef gr gs col0 s gr 
% Polyline
n 3525 5475 m 5925 5475 l 5925 6300 l 3525 6300 l
 cp gs col7 1.00 shd ef gr gs col0 s gr 
% Polyline
n 3525 6975 m 5925 6975 l 5925 7800 l 3525 7800 l
 cp gs col7 1.00 shd ef gr gs col0 s gr 
% Polyline
n 4725 10275 m 5625 9375 l 4725 8475 l 3825 9375 l
 cp gs col7 1.00 shd ef gr gs col0 s gr 
% Polyline
n 3525 11100 m 5925 11100 l 5925 11925 l 3525 11925 l
 cp gs col7 1.00 shd ef gr gs col0 s gr 
% Polyline
n 4725 14175 m 5625 13275 l 4725 12375 l 3825 13275 l
 cp gs col7 1.00 shd ef gr gs col0 s gr 
% Polyline
gs  clippath
4043 2301 m 4091 2192 l 3767 2049 l 4018 2225 l 3719 2159 l cp
eoclip
n 2104 1566 m 2107 1567 l 2113 1569 l 2124 1574 l 2142 1581 l 2166 1590 l
 2197 1603 l 2236 1618 l 2281 1636 l 2332 1656 l 2387 1677 l
 2445 1700 l 2505 1723 l 2566 1747 l 2626 1770 l 2684 1793 l
 2741 1815 l 2794 1835 l 2845 1854 l 2891 1872 l 2934 1888 l
 2973 1902 l 3009 1915 l 3041 1927 l 3069 1936 l 3094 1945 l
 3115 1951 l 3133 1957 l 3149 1961 l 3161 1964 l 3171 1965 l
 3179 1966 l 3188 1964 l 3188 1958 l 3182 1949 l 3170 1937 l
 3152 1922 l 3130 1905 l 3105 1887 l 3079 1868 l 3053 1849 l
 3028 1831 l 3006 1815 l 2988 1801 l 2976 1790 l 2970 1783 l
 2970 1778 l 2979 1779 l 2986 1780 l 2995 1783 l 3007 1786 l
 3021 1791 l 3037 1797 l 3057 1805 l 3079 1814 l 3104 1824 l
 3132 1836 l 3163 1849 l 3198 1864 l 3236 1880 l 3277 1898 l
 3322 1917 l 3370 1938 l 3420 1960 l 3474 1983 l 3529 2008 l
 3585 2033 l 3642 2058 l 3699 2083 l 3755 2108 l 3807 2131 l
 3857 2153 l 3902 2173 l 3941 2191 l 3974 2205 l 4001 2218 l
 4022 2227 l
 4054 2241 l gs col0 s gr gr

% arrowhead
n 3719 2159 m 4018 2225 l 3767 2049 l 3798 2128 l 3719 2159 l 
 cp gs 0.00 setgray ef gr  col0 s
% Polyline
gs  clippath
4264 1935 m 4312 1826 l 3988 1683 l 4239 1859 l 3940 1793 l cp
eoclip
n 2325 1200 m 2328 1201 l 2334 1203 l 2345 1208 l 2363 1215 l 2387 1224 l
 2418 1237 l 2457 1252 l 2502 1270 l 2553 1290 l 2608 1311 l
 2666 1334 l 2726 1357 l 2787 1381 l 2847 1404 l 2905 1427 l
 2962 1449 l 3015 1469 l 3066 1488 l 3112 1506 l 3155 1522 l
 3194 1536 l 3230 1549 l 3262 1561 l 3290 1570 l 3315 1579 l
 3336 1585 l 3354 1591 l 3370 1595 l 3382 1598 l 3392 1599 l
 3400 1600 l 3409 1598 l 3409 1592 l 3403 1583 l 3391 1571 l
 3373 1556 l 3351 1539 l 3326 1521 l 3300 1502 l 3274 1483 l
 3249 1465 l 3227 1449 l 3209 1435 l 3197 1424 l 3191 1417 l
 3191 1412 l 3200 1413 l 3207 1414 l 3216 1417 l 3228 1420 l
 3242 1425 l 3258 1431 l 3278 1439 l 3300 1448 l 3325 1458 l
 3353 1470 l 3384 1483 l 3419 1498 l 3457 1514 l 3498 1532 l
 3543 1551 l 3591 1572 l 3641 1594 l 3695 1617 l 3750 1642 l
 3806 1667 l 3863 1692 l 3920 1717 l 3976 1742 l 4028 1765 l
 4078 1787 l 4123 1807 l 4162 1825 l 4195 1839 l 4222 1852 l
 4243 1861 l
 4275 1875 l gs col0 s gr gr

% arrowhead
n 3940 1793 m 4239 1859 l 3988 1683 l 4019 1762 l 3940 1793 l 
 cp gs 0.00 setgray ef gr  col0 s
/Times-Roman ff 270.00 scf sf
4725 2925 m
gs 1 -1 sc (Sample posterior:) dup sw pop 2 div neg 0 rm  col0 sh gr
/Symbol ff 270.00 scf sf
4725 3225 m
gs 1 -1 sc (q) dup sw pop 2 div neg 0 rm  col0 sh gr
/Times-Roman ff 270.00 scf sf
4650 4350 m
gs 1 -1 sc (Compute model:) dup sw pop 2 div neg 0 rm  col0 sh gr
/Times-Roman ff 270.00 scf sf
4650 5925 m
gs 1 -1 sc (MCMC) dup sw pop 2 div neg 0 rm  col0 sh gr
/Times-Roman ff 270.00 scf sf
4650 6240 m
gs 1 -1 sc (normalization) dup sw pop 2 div neg 0 rm  col0 sh gr
/Times-Roman ff 270.00 scf sf
4650 7350 m
gs 1 -1 sc (Compute) dup sw pop 2 div neg 0 rm  col0 sh gr
/Times-Roman ff 270.00 scf sf
4650 7650 m
gs 1 -1 sc (posterior) dup sw pop 2 div neg 0 rm  col0 sh gr
/Times-Roman ff 270.00 scf sf
4725 9450 m
gs 1 -1 sc (Converged?) dup sw pop 2 div neg 0 rm  col0 sh gr
/Times-Roman ff 270.00 scf sf
5775 9300 m
gs 1 -1 sc (No) dup sw pop 2 div neg 0 rm  col0 sh gr
/Times-Roman ff 270.00 scf sf
4950 10500 m
gs 1 -1 sc (Yes) dup sw pop 2 div neg 0 rm  col0 sh gr
/Times-Roman ff 270.00 scf sf
4725 11475 m
gs 1 -1 sc (Compute covariance) dup sw pop 2 div neg 0 rm  col0 sh gr
/Times-Roman ff 270.00 scf sf
4650 13275 m
gs 1 -1 sc (Precision) dup sw pop 2 div neg 0 rm  col0 sh gr
/Times-Roman ff 270.00 scf sf
4650 13590 m
gs 1 -1 sc (Ok?) dup sw pop 2 div neg 0 rm  col0 sh gr
/Times-Roman ff 270.00 scf sf
4725 16050 m
gs 1 -1 sc (Done!) dup sw pop 2 div neg 0 rm  col0 sh gr
/Times-Roman ff 270.00 scf sf
5775 13200 m
gs 1 -1 sc (No) dup sw pop 2 div neg 0 rm  col0 sh gr
/Times-Roman ff 270.00 scf sf
5025 14625 m
gs 1 -1 sc (Yes) dup sw pop 2 div neg 0 rm  col0 sh gr
/Times-Roman ff 270.00 scf sf
900 5775 m
gs 1 -1 sc (MCMC) dup sw pop 2 div neg 0 rm  col0 sh gr
/Times-Roman ff 270.00 scf sf
900 6090 m
gs 1 -1 sc (chain) dup sw pop 2 div neg 0 rm  col0 sh gr
/Times-Roman ff 270.00 scf sf
900 4350 m
gs 1 -1 sc (Hierarchical) dup sw pop 2 div neg 0 rm  col0 sh gr
/Times-Roman ff 270.00 scf sf
900 4665 m
gs 1 -1 sc (database) dup sw pop 2 div neg 0 rm  col0 sh gr
/Times-BoldItalic ff 270.00 scf sf
1200 1275 m
gs 1 -1 sc (Inference: Level i) dup sw pop 2 div neg 0 rm  col0 sh gr
/Times-BoldItalic ff 270.00 scf sf
525 1650 m
gs 1 -1 sc (Optimization) col0 sh gr
/Times-Roman ff 270.00 scf sf
4725 375 m
gs 1 -1 sc (Prior) dup sw pop 2 div neg 0 rm  col0 sh gr
/Times-Roman ff 270.00 scf sf
4725 825 m
gs 1 -1 sc (previous) dup sw pop 2 div neg 0 rm  col0 sh gr
/Times-Roman ff 270.00 scf sf
4725 600 m
gs 1 -1 sc (from) dup sw pop 2 div neg 0 rm  col0 sh gr
/Times-Roman ff 270.00 scf sf
4725 1050 m
gs 1 -1 sc (level) dup sw pop 2 div neg 0 rm  col0 sh gr
/Times-Roman ff 270.00 scf sf
8925 13050 m
gs 1 -1 sc (To) dup sw pop 2 div neg 0 rm  col0 sh gr
/Times-Roman ff 270.00 scf sf
8925 13365 m
gs 1 -1 sc (next) dup sw pop 2 div neg 0 rm  col0 sh gr
/Times-Roman ff 270.00 scf sf
8925 13680 m
gs 1 -1 sc (level) dup sw pop 2 div neg 0 rm  col0 sh gr
/Times-Roman ff 270.00 scf sf
4725 11790 m
gs 1 -1 sc (& prior for next level) dup sw pop 2 div neg 0 rm  col0 sh gr
/Times-Roman ff 270.00 scf sf
4650 4650 m
gs 1 -1 sc (f\(D; ) dup sw pop 2 div neg 0 rm  col0 sh gr
/Symbol ff 270.00 scf sf
4950 4650 m
gs 1 -1 sc (q\)) col0 sh gr
$F2psEnd
rs
